[
    {
        "scope": [
            "students",
            "teachers",
            "registrar"
        ],
        "resource": "/api/ViberConnectActions",
        "access": [
            "read",
            "write"
        ]
    }
]